<svg width="412" height="421" xmlns="http://www.w3.org/2000/svg">
 <metadata>Svg Vector Icons : http://www.onlinewebfonts.com/icon</metadata>

 <g>
  <title>background</title>
  <rect fill="none" id="canvas_background" height="423" width="414" y="-1" x="-1"/>
 </g>
 <g>
  <title>Layer 1</title>
  <g stroke="null" id="svg_1">
   <path stroke="#007bff" stroke-width="2" fill="none" id="svg_7" d="m359.108302,11.039001l-187.815497,0c-22.940842,0 -41.309699,19.628482 -41.309699,43.656452l0,65.442375l41.309699,0l0,-65.484678l187.815497,0l0,305.468255l-187.815497,0l0,-43.614149l-41.309699,0l0,43.656452c0,23.985667 18.368857,43.656452 41.309699,43.656452l187.815497,0c22.940841,0 41.754759,-19.628483 41.754759,-43.656452l0,-305.510558c0,-23.985667 -18.773458,-43.614149 -41.754759,-43.614149z"/>
   <path stroke="#007bff" id="svg_8" d="m150.511095,139.305465l141.268863,77.95718l-141.268863,77.957181l0,-38.978593l-141.948623,0l0,-77.957175l141.948623,0l0,-38.978593z" stroke-width="2" fill="none"/>
  </g>
 </g>
</svg>