<svg width="412" height="421" xmlns="http://www.w3.org/2000/svg">
 <metadata>Svg Vector Icons : http://www.onlinewebfonts.com/icon</metadata>

 <g>
  <title>background</title>
  <rect x="-1" y="-1" width="414" height="423" id="canvas_background" fill="none"/>
 </g>
 <g>
  <title>Layer 1</title>
  <g id="svg_1" stroke="null">
   <path d="m359.1083,11.039l-187.8155,0c-22.94084,0 -41.30969,19.62848 -41.30969,43.65645l0,65.44238l41.30969,0l0,-65.48468l187.8155,0l0,305.46825l-187.8155,0l0,-43.61414l-41.30969,0l0,43.65645c0,23.98566 18.36885,43.65645 41.30969,43.65645l187.8155,0c22.94084,0 41.75476,-19.62848 41.75476,-43.65645l0,-305.51056c0,-23.98567 -18.77346,-43.61415 -41.75476,-43.61415z" id="svg_7" fill="none" stroke-width="12" stroke="#007bff"/>
   <path fill="none" stroke-width="12" d="m150.5111,139.30546l141.26886,77.95718l-141.26886,77.95719l0,-38.9786l-141.94863,0l0,-77.95717l141.94863,0l0,-38.97859l0,-0.00001z" id="svg_8" stroke="#007bff"/>
  </g>
 </g>
</svg>