<svg width="286" height="302" xmlns="http://www.w3.org/2000/svg">
 <!-- Created with Method Draw - http://github.com/duopixel/Method-Draw/ -->
 <g>
  <title>background</title>
  <rect fill="none" id="canvas_background" height="304" width="288" y="-1" x="-1"/>
 </g>
 <g>
  <title>Layer 1</title>
  <ellipse ry="150" rx="142" id="svg_1" cy="150.75" cx="142.75" fill-opacity="null" stroke-opacity="null" stroke-width="1.5" stroke="#000" fill="none"/>
  <rect stroke="#000" transform="rotate(180 143.75025939941406,105.2496795654297) " id="svg_5" height="111.000549" width="1" y="49.749414" x="143.250259" stroke-opacity="null" stroke-width="1.5" fill="#000000"/>
  <rect stroke="#000" transform="rotate(113 198.92108154296875,184.12881469726565) " id="svg_7" height="120" width="1" y="124.128805" x="198.42109" stroke-opacity="null" stroke-width="1.5" fill="#000000"/>
 </g>
</svg>